C_Name,renewEnerg
Afghanistan,76.5
Albania,90.1
Algeria,2.7
American Samoa,0.0
Angola,43.1
Antigua and Barbuda,0.0
Argentina,31.6
Armenia,46.6
Aruba,11.3
Australia,18.4
Austria,59.1
Azerbaijan,17.7
Bahamas,0.0
Bahrain,0.0
Bangladesh,4.3
Barbados,0.0
Belarus,0.3
Belgium,46.0
Belize,66.7
Benin,1.7
Bermuda,0.0
Bhutan,98.9
Bolivia,32.3
Bosnia and Herzegovina,55.5
Botswana,0.0
Brazil,82.9
British Virgin Islands,0.0
Brunei darussalam,0.0
Bulgaria,44.4
Burkina Faso,12.7
Burma,32.3
Burundi,98.1
Cambodia,4.8
Cameroon,72.2
Canada,71.0
Cape Verde,3.1
Cayman Islands,0.0
Central African Republic,54.3
Chad,0.0
Chile,35.5
China,25.7
Colombia,67.0
Comoros,16.7
Democratic Republic of the Congo,98.7
Congo,80.4
Cook Islands,1.1
Costa Rica,75.2
Cote d'Ivoire,49.4
Croatia,45.5
Cuba,1.2
Cyprus,0.3
Czech Republic,33.7
Denmark,34.3
Djibouti,0.0
Dominica,27.9
Dominican Republic,16.9
Ecuador,43.8
Egypt,13.1
El Salvador,47.0
Equatorial Guinea,3.2
Eritrea,0.7
Estonia,5.4
Ethiopia,82.7
Falkland Islands (Malvinas),10.0
Faroe Islands,35.1
Fiji,45.2
Finland,47.5
France,75.9
French Polynesia,33.6
Gabon,41.0
Gambia,0.0
Georgia,62.8
Germany,44.9
Ghana,59.4
Gibraltar,0.0
Greece,25.5
Greenland,0.0
Grenada,0.0
Guam,0.0
Guatemala,41.8
Guinea,31.3
Guinea-Bissau,0.0
Guyana,0.3
Haiti,25.8
Honduras,36.2
Hong Kong,0.0
Hungary,30.9
Iceland,95.3
India,30.1
Indonesia,18.5
Iran (Islamic Republic of),13.8
Iraq,27.2
Ireland,20.7
Israel,0.4
Italy,22.3
Jamaica,6.5
Japan,27.2
Jordan,0.7
Kazakhstan,11.8
Kenya,56.7
Kiribati,0.0
"Korea, Democratic People's Republic of",52.6
"Korea, Republic of",25.3
Kuwait,0.0
Kyrgyzstan,79.9
Lao People's Democratic Republic,97.3
Latvia,72.8
Lebanon,12.1
Lesotho,100.0
Liberia,0.0
Libyan Arab Jamahiriya,0.0
Lithuania,30.0
Luxembourg,7.0
Macau,0.0
The former Yugoslav Republic of Macedonia,34.3
Madagascar,30.5
Malawi,94.3
Malaysia,8.3
Maldives,0.0
Mali,51.6
Malta,0.3
Mauritania,38.3
Mauritius,24.8
Mexico,25.0
Republic of Moldova,11.6
Mongolia,0.1
Montenegro,75.8
Montserrat,0.0
Morocco,24.9
Mozambique,89.7
Namibia,63.4
Nauru,0.0
Nepal,92.1
Netherlands,15.8
New Caledonia,20.9
New Zealand,70.0
Nicaragua,32.1
Niger,0.0
Nigeria,32.9
Niue,0.0
Norway,93.1
Oman,0.0
Pakistan,34.8
Panama,48.4
Papua New Guinea,38.9
Paraguay,99.9
Peru,41.0
Philippines,33.9
Poland,5.3
Portugal,45.8
Puerto Rico,2.8
Qatar,0.0
Romania,37.5
Russia,31.2
Rwanda,46.6
"Saint Helena, Ascension, and Tristan da Cunha",0.0
Saint Kitts and Nevis,0.0
Saint Lucia,0.0
Saint Pierre and Miquelon,0.0
Saint Vincent and the Grenadines,18.4
Samoa,29.4
Sao Tome and Principe,42.9
Saudi Arabia,0.0
Senegal,0.3
Serbia,26.6
Seychelles,0.0
Sierra Leone,7.7
Singapore,0.2
Slovakia,50.1
Slovenia,57.8
Solomon Islands,0.0
Somalia,6.3
South Africa,6.1
Spain,45.7
Sri Lanka,51.5
Sudan,69.3
Suriname,48.6
Swaziland,32.3
Sweden,87.1
Switzerland,88.3
Syrian Arab Republic,15.2
Taiwan,19.9
Tajikistan,91.2
United Republic of Tanzania,60.5
Thailand,9.1
Togo,78.8
Tonga,0.0
Trinidad and Tobago,0.3
Tunisia,3.1
Turkey,34.7
Turkmenistan,0.0
Turks and Caicos Islands,0.0
Uganda,62.1
Ukraine,35.5
United Arab Emirates,0.0
United Kingdom,21.5
United States,22.4
Uruguay,61.5
Uzbekistan,14.8
Vanuatu,0.0
Venezuela,58.9
Viet Nam,36.3
Virgin Islands,0.0
West Bank,0.0
Western Sahara,0.0
Yemen,0.0
Zambia,99.6
Zimbabwe,33.9
